Confidence and prediction intervals with the mixpoissonreg package • mixpoissonreg
…
Standard errors for the means using the augment method

One can also obtain the standard errors in a tidy manner by using the augment method with the argument type.predict to “link” and the argument se_fit to TRUE. This will return a tibble::tibble object with several columns, including .fitted containing the fitted values and .se.fit containing the standard errors.

The following example shows how to use the augment method to obtain the fitted values in the scale of the linear predictor along with the corresponding standard errors:

library(dplyr)

augment(fit, type.predict = "link", se_fit = TRUE) %>% dplyr::select(.fitted, .se.fit)
#> # A tibble: 314 x 2
#>    .fitted .se.fit
#>      <dbl>   <dbl>
#>  1   1.68    0.118
#>  2   1.90    0.107
#>  3   2.16    0.115
#>  4   2.18    0.120
#>  5   2.27    0.142
#>  6   1.84    0.123
#>  7   1.89    0.113
#>  8   2.05    0.137
#>  9   1.75    0.107
#> 10   0.938   0.129
#> # … with 304 more rows
…
Observe that the confidence intervals tend to be narrow. They are confidence intervals for the means, not for the response variables. The intervals that play the role of “confidence intervals” for response variables are the prediction intervals, which are much wider and provide estimate of intervals for which future observations will fall with the prescribed probability.

Confidence intervals for the means using the augment method

The augment method produces confidence intervals for the mean parameters in the response scale by default. The confidence level can be changed by setting the level argument to the desired level.

For example, let us consider the fit_math object and get the confidence intervals with 99% level along with the response variable daysabs and the covariate math:

augment(fit_math, level = 0.99) %>% select(math, daysabs, .fittedlwrconf, .fitteduprconf)
#> # A tibble: 314 x 4
#>     math daysabs .fittedlwrconf .fitteduprconf
#>    <dbl>   <dbl>          <dbl>          <dbl>
#>  1    63       4           4.25           5.73
#>  2    27       4           6.08           8.42
#>  3    20       2           6.39           9.26
#>  4    16       3           6.56           9.79
#>  5     2       3           7.17          12.0 
#>  6    71      13           3.82           5.40
#>  7    63      11           4.25           5.73
#>  8     3       7           7.12          11.8 
#>  9    51      10           4.90           6.35
#> 10    49       9           5.01           6.48
#> # … with 304 more rows
…
Observe that unlike the confidence intervals, the prediction intervals now cover the majority of the observed response variables. These intervals should be used for future observations as they are intervals such that the future response variables will fall with the prescribed probability.

Prediction intervals for the response variables using the augment method

To obtain prediction intervals using the augment method, one must set the pred_int argument to TRUE. The significance level can be changed by setting the level argument to the desired level. To change the number of mean and prediction parameter generated, one must set the nsim_pred argument to the desired value, the default is 100, and to change the number of response variables y generated for each pair of mean and precision parameters, one must set the nsim_pred_y to the desired value, the default is 100.

For example, let us consider the fit_math object and obtain prediction intervals with 99% level along with the response variable daysabs and the covariate math. We will also set nsim_pred and nsim_pred_y to 50 to reduce computational cost.

augment(fit_math, pred_int = TRUE, level = 0.99,
        nsim_pred = 50, nsim_pred_y = 50) %>% select(math, daysabs, .fittedlwrpred, .fitteduprpred)
#> # A tibble: 314 x 4
#>     math daysabs .fittedlwrpred .fitteduprpred
#>    <dbl>   <dbl>          <dbl>          <dbl>
#>  1    63       4              0             31
#>  2    27       4              0             43
#>  3    20       2              0             44
#>  4    16       3              0             45
#>  5     2       3              0             59
#>  6    71      13              0             28
#>  7    63      11              0             32
#>  8     3       7              0             54
#>  9    51      10              0             32
#> 10    49       9              0             34
#> # … with 304 more rows
…
