Introduction to mixpoissonreg • mixpoissonreg
…
For further details on global and local influence analyses of mixpoissonreg objects, we refer the reader to the Global and local influence analysis with the mixpoissonreg package vignette.

Compatibility with the tidyverse

We provide the standard methods from the broom package, namely augment, glance and tidy, for mixpoissonreg objects:

augment(fit_prec)
#> # A tibble: 314 x 12
#>    daysabs gender  math prog  .fitted .fittedlwrconf .fitteduprconf .resid
#>      <dbl> <fct>  <dbl> <fct>   <dbl>          <dbl>          <dbl>  <dbl>
#>  1       4 male      63 Acad…    5.25           4.14           6.66 -0.200
#>  2       4 male      27 Acad…    6.66           5.40           8.22 -0.370
#>  3       2 female    20 Acad…    8.92           7.21          11.0  -0.814
#>  4       3 female    16 Acad…    9.15           7.34          11.4  -0.713
#>  5       3 female     2 Acad…   10.0            7.76          13.0  -0.772
#>  6      13 female    71 Acad…    6.36           5.02           8.07  0.956
#>  7      11 female    63 Acad…    6.71           5.39           8.34  0.599
#>  8       7 male       3 Acad…    7.81           6.04          10.1  -0.102
#>  9      10 male      51 Acad…    5.68           4.58           7.05  0.660
#> 10       9 male      49 Voca…    2.48           1.86           3.30  1.86 
#> # … with 304 more rows, and 4 more variables: .resfit <dbl>, .hat <dbl>,
#> #   .cooksd <dbl>, .gencooksd <dbl>
…
Finally, we provide additional methods related to local influence analysis: tidy_local_influence, local_influence_benchmarks and local_influence_autoplot:

tidy_local_influence(fit_prec)
#> # A tibble: 314 x 5
#>    case_weights hidden_variable mean_explanatory precision_expla…
#>           <dbl>           <dbl>            <dbl>            <dbl>
#>  1     0.00146         0.000353         0.000533         0.00217 
#>  2     0.000970        0.000268         0.000782         0.00129 
#>  3     0.000712        0.000369         0.000535         0.00132 
#>  4     0.000350        0.000328         0.000875         0.000130
#>  5     0.000680        0.000562         0.00101          0.000701
#>  6     0.00118         0.00387          0.00494          0.000740
#>  7     0.00125         0.00230          0.00396          0.00139 
#>  8     0.00243         0.00127          0.00230          0.00185 
#>  9     0.00107         0.00180          0.00266          0.00160 
#> 10     0.00249         0.00325          0.000340         0.000788
#> # … with 304 more rows, and 1 more variable: simultaneous_explanatory <dbl>
…
