mixpoissonreg in the tidyverse • mixpoissonreg
…
The mixpoissonreg package provides the augment, glance and tidy methods following the same spirit as the corresponding methods found in the broom package.

We will now provide a few examples of outputs and applications of these methods to mixpoissonreg objects.

augment

The augment method for mixpoissonreg objects provides a tibble::tibble with several important quantities such as residuals, Cook’s distance, generalized Cook’s distance, the model’s matrix, confidence intervals for the means, etc.

library(mixpoissonreg)

fit <- mixpoissonreg(daysabs ~ gender + math + prog | prog, 
                       model = "PIG", data = Attendance)

augment(fit)
#> # A tibble: 314 x 12
#>    daysabs gender  math prog       .fitted .fittedlwrconf .fitteduprconf  .resid
#>      <dbl> <fct>  <dbl> <fct>        <dbl>          <dbl>          <dbl>   <dbl>
#>  1       4 male      63 Academic      5.00           3.91           6.41 -0.158 
#>  2       4 male      27 Academic      6.62           5.23           8.37 -0.316 
#>  3       2 female    20 Academic      9.27           7.23          11.9  -0.634 
#>  4       3 female    16 Academic      9.56           7.39          12.4  -0.555 
#>  5       3 female     2 Academic     10.7            7.94          14.3  -0.584 
#>  6      13 female    71 Academic      6.24           4.80           8.10  0.862 
#>  7      11 female    63 Academic      6.64           5.20           8.47  0.524 
#>  8       7 male       3 Academic      7.98           5.98          10.6  -0.0985
#>  9      10 male      51 Academic      5.49           4.37           6.91  0.648 
#> 10       9 male      49 Vocational    2.52           1.81           3.52  1.57  
#> # … with 304 more rows, and 4 more variables: .resfit <dbl>, .hat <dbl>,
#> #   .cooksd <dbl>, .gencooksd <dbl>

One can also set the type of fitted values by changing the type.predict argument, where the options are “response” (the default), “link”, “precision”, “variance”.

augment(fit, type.predict = "link")
#> # A tibble: 314 x 12
#>    daysabs gender  math prog       .fitted .fittedlwrconf .fitteduprconf  .resid
#>      <dbl> <fct>  <dbl> <fct>        <dbl>          <dbl>          <dbl>   <dbl>
#>  1       4 male      63 Academic     1.61           1.36            1.86 -0.158 
#>  2       4 male      27 Academic     1.89           1.66            2.13 -0.316 
#>  3       2 female    20 Academic     2.23           1.98            2.48 -0.634 
#>  4       3 female    16 Academic     2.26           2.00            2.52 -0.555 
#>  5       3 female     2 Academic     2.37           2.07            2.66 -0.584 
#>  6      13 female    71 Academic     1.83           1.57            2.09  0.862 
#>  7      11 female    63 Academic     1.89           1.65            2.14  0.524 
#>  8       7 male       3 Academic     2.08           1.79            2.36 -0.0985
#>  9      10 male      51 Academic     1.70           1.47            1.93  0.648 
#> 10       9 male      49 Vocational   0.926          0.594           1.26  1.57  
#> # … with 304 more rows, and 4 more variables: .resfit <dbl>, .hat <dbl>,
#> #   .cooksd <dbl>, .gencooksd <dbl>

If type.predict is “link”, one can set se_fit to TRUE to obtain standard errors for the mean parameters in the linear predictor scale.

augment(fit, type.predict = "link", se_fit = TRUE)
#> # A tibble: 314 x 13
#>    daysabs gender  math prog       .fitted .se.fit .fittedlwrconf .fitteduprconf
#>      <dbl> <fct>  <dbl> <fct>        <dbl>   <dbl>          <dbl>          <dbl>
#>  1       4 male      63 Academic     1.61    0.126          1.36            1.86
#>  2       4 male      27 Academic     1.89    0.120          1.66            2.13
#>  3       2 female    20 Academic     2.23    0.127          1.98            2.48
#>  4       3 female    16 Academic     2.26    0.131          2.00            2.52
#>  5       3 female     2 Academic     2.37    0.151          2.07            2.66
#>  6      13 female    71 Academic     1.83    0.133          1.57            2.09
#>  7      11 female    63 Academic     1.89    0.125          1.65            2.14
#>  8       7 male       3 Academic     2.08    0.147          1.79            2.36
#>  9      10 male      51 Academic     1.70    0.117          1.47            1.93
#> 10       9 male      49 Vocational   0.926   0.169          0.594           1.26
#> # … with 304 more rows, and 5 more variables: .resid <dbl>, .resfit <dbl>,
#> #   .hat <dbl>, .cooksd <dbl>, .gencooksd <dbl>

By default the augment method returns the Pearson’s residuals. To return the score residuals one simply has to set the type.residuals argument to “score”:

augment(fit, type.residuals = "score")
#> # A tibble: 314 x 12
#>    daysabs gender  math prog      .fitted .fittedlwrconf .fitteduprconf   .resid
#>      <dbl> <fct>  <dbl> <fct>       <dbl>          <dbl>          <dbl>    <dbl>
#>  1       4 male      63 Academic     5.00           3.91           6.41  0.189  
#>  2       4 male      27 Academic     6.62           5.23           8.37 -0.00561
#>  3       2 female    20 Academic     9.27           7.23          11.9  -0.839  
#>  4       3 female    16 Academic     9.56           7.39          12.4  -0.542  
#>  5       3 female     2 Academic    10.7            7.94          14.3  -0.642  
#>  6      13 female    71 Academic     6.24           4.80           8.10  0.980  
#>  7      11 female    63 Academic     6.64           5.20           8.47  0.790  
#>  8       7 male       3 Academic     7.98           5.98          10.6   0.312  
#>  9      10 male      51 Academic     5.49           4.37           6.91  0.851  
#> 10       9 male      49 Vocation…    2.52           1.81           3.52  1.11   
#> # … with 304 more rows, and 4 more variables: .resfit <dbl>, .hat <dbl>,
#> #   .cooksd <dbl>, .gencooksd <dbl>
…
With the augment method it is simple to sort the observations by their Cook’s distance or by their generalized Cook’s distance along with their indexes and the model’s matrix in order to facilitate the study of their influence:

library(dplyr)

augment(fit) %>% mutate(.index = row_number()) %>% arrange(desc(.cooksd)) %>% 
  select(.index, daysabs, gender, math,prog,.cooksd)
#> # A tibble: 314 x 6
#>    .index daysabs gender  math prog       .cooksd
#>     <int>   <dbl> <fct>  <dbl> <fct>        <dbl>
#>  1    186      16 male      81 Vocational  0.271 
#>  2    260      19 male      49 Vocational  0.261 
#>  3     94      29 female    70 General     0.171 
#>  4     79      35 male       1 Academic    0.147 
#>  5    188      16 female    75 Vocational  0.123 
#>  6    150      34 female    29 General     0.108 
#>  7     57      28 male       5 General     0.0977
#>  8    254      14 male      43 Vocational  0.0826
#>  9     53      27 male      48 Academic    0.0824
#> 10    105      19 male      70 General     0.0776
#> # … with 304 more rows

and

augment(fit) %>% mutate(.index = row_number()) %>% arrange(desc(.gencooksd)) %>% 
    select(.index, daysabs, gender, math,prog,.gencooksd)
#> # A tibble: 314 x 6
#>    .index daysabs gender  math prog       .gencooksd
#>     <int>   <dbl> <fct>  <dbl> <fct>           <dbl>
#>  1     94      29 female    70 General        0.0739
#>  2    105      19 male      70 General        0.0398
#>  3    150      34 female    29 General        0.0362
#>  4    143       5 female     7 General        0.0350
#>  5     57      28 male       5 General        0.0308
#>  6    186      16 male      81 Vocational     0.0273
#>  7    265      16 female    99 General        0.0239
#>  8    235       3 female    67 General        0.0234
#>  9    260      19 male      49 Vocational     0.0222
#> 10     28       0 female    21 Academic       0.0221
#> # … with 304 more rows
…
tidy_local_influence and local_influence_benchmarks methods

The tidy_local_influence method for mixpoissonreg objects has, besides the model argument, all the arguments of the local_influence method for mixpoissonreg objects. For details on these arguments we refer the reader to the Global and local influence analysis with the mixpoissonreg package vignette.

When we call the tidy_local_influence method it returns a nice tibble::tibble containing the curvatures under the chosen perturbation schemes. For example:

tidy_local_influence(fit)
#> # A tibble: 314 x 5
#>    case_weights hidden_variable mean_explanatory precision_explanatory
#>           <dbl>           <dbl>            <dbl>                 <dbl>
#>  1     0.000948        0.000493         0.000358             0.00255  
#>  2     0.000526        0.000433         0.000580             0.00191  
#>  3     0.00155         0.000516         0.000518             0.0000402
#>  4     0.000380        0.000527         0.000737             0.000191 
#>  5     0.000841        0.000732         0.000867             0.0000561
#>  6     0.00200         0.00472          0.00447              0.00233  
#>  7     0.00186         0.00279          0.00347              0.00302  
#>  8     0.00143         0.00167          0.00186              0.00315  
#>  9     0.00179         0.00221          0.00220              0.00277  
#> 10     0.00335         0.00396          0.000388             0.00298  
#> # … with 304 more rows, and 1 more variable: simultaneous_explanatory <dbl>

One can, for instance, change the curvature and the direction:

tidy_local_influence(fit, curvature = "normal",
                     direction = "max.eigen")
#> # A tibble: 314 x 5
#>    case_weights hidden_variable mean_explanatory precision_explanatory
#>           <dbl>           <dbl>            <dbl>                 <dbl>
#>  1     -0.0541          0.00496          -0.0189              -0.0505 
#>  2     -0.0379         -0.00703          -0.0241              -0.0437 
#>  3      0.0587         -0.0174           -0.0228               0.00634
#>  4      0.0199         -0.0234           -0.0272              -0.0138 
#>  5      0.0308         -0.0283           -0.0294              -0.00749
#>  6     -0.0641         -0.0255           -0.0668              -0.0482 
#>  7     -0.0713         -0.0286           -0.0589              -0.0549 
#>  8     -0.0641         -0.0260           -0.0432              -0.0561 
#>  9     -0.0719          0.00166          -0.0469              -0.0527 
#> 10     -0.00232         0.0122           -0.0197              -0.0546 
#> # … with 304 more rows, and 1 more variable: simultaneous_explanatory <dbl>
…
inf_bench_tbl <- left_join(inf_tbl, bench_tbl, by = "perturbation") %>% 
  mutate(influential = curvature > benchmark) %>% filter(influential == TRUE) %>%
  select(-influential, -benchmark, -curvature)

data_tbl <- augment(fit) %>% mutate(.index = row_number()) %>% 
  select(.index, daysabs, gender, math, prog)

influential <- left_join(inf_bench_tbl, data_tbl, by = ".index")

influential
#> # A tibble: 64 x 6
#>    .index perturbation             daysabs gender  math prog    
#>     <int> <chr>                      <dbl> <fct>  <dbl> <fct>   
#>  1     20 hidden_variable               24 male       4 Academic
#>  2     20 mean_explanatory              24 male       4 Academic
#>  3     20 simultaneous_explanatory      24 male       4 Academic
#>  4     28 case_weights                   0 female    21 Academic
#>  5     31 case_weights                   0 male       1 Academic
#>  6     36 hidden_variable               28 female    20 Academic
#>  7     36 mean_explanatory              28 female    20 Academic
#>  8     36 simultaneous_explanatory      28 female    20 Academic
#>  9     39 precision_explanatory          5 male       1 General 
#> 10     40 mean_explanatory              27 female    35 Academic
#> # … with 54 more rows
…
