Tidy Functions for Local Influence Diagnostics for mixpoissonreg Objects — tidy_local_influence.mixpoissonreg • mixpoissonreg
…
    See also

    glance.mixpoissonreg, augment.mixpoissonreg, tidy.mixpoissonreg, autoplot.mixpoissonreg

    Examples

# \donttest{
data("Attendance", package = "mixpoissonreg")

daysabs_fit <- mixpoissonreg(daysabs ~ gender + math +
prog | gender + math + prog, data = Attendance)
tidy_local_influence(daysabs_fit)

#> # A tibble: 314 x 5
#>    case_weights hidden_variable mean_explanatory precision_expla…
#>           <dbl>           <dbl>            <dbl>            <dbl>
#>  1     0.00146         0.000354         0.000533         0.00217 
#>  2     0.000970        0.000268         0.000782         0.00129 
#>  3     0.000713        0.000369         0.000535         0.00132 
#>  4     0.000350        0.000328         0.000875         0.000131
#>  5     0.000681        0.000562         0.00101          0.000702
#>  6     0.00118         0.00387          0.00494          0.000739
#>  7     0.00125         0.00230          0.00396          0.00139 
#>  8     0.00243         0.00127          0.00230          0.00185 
#>  9     0.00107         0.00180          0.00266          0.00161 
#> 10     0.00249         0.00325          0.000340         0.000790
#> # … with 304 more rows, and 1 more variable: simultaneous_explanatory <dbl>

daysabs_fit_ml <- mixpoissonregML(daysabs ~ gender + math +
prog | gender + math + prog, data = Attendance, envelope = 100)
tidy_local_influence(daysabs_fit_ml, perturbation = "case_weights")

#> # A tibble: 314 x 1
#>    case_weights
#>           <dbl>
#>  1     0.00171 
#>  2     0.00110 
#>  3     0.000982
#>  4     0.000441
#>  5     0.000978
#>  6     0.00116 
#>  7     0.00119 
#>  8     0.00261 
#>  9     0.00143 
#> 10     0.00330 
#> # … with 304 more rows
…
