Analyzing overdispersed count data with the mixpoissonreg package • mixpoissonreg
…
inf_nb_bench_tbl <- left_join(inf_nb_tbl, bench_nb_tbl, by = "perturbation") %>% 
  mutate(influential = curvature > benchmark) %>% filter(influential == TRUE) %>%
  select(-influential, -benchmark, -curvature)

data_nb_tbl <- augment(fit_nb_red) %>% mutate(.index = row_number()) %>% 
  select(.index, daysabs, gender, math, prog)

influential_nb <- left_join(inf_nb_bench_tbl, data_nb_tbl, by = ".index")

influential_nb
#> # A tibble: 55 x 6
#>    .index perturbation             daysabs gender  math prog    
#>     <int> <chr>                      <dbl> <fct>  <dbl> <fct>   
#>  1     20 mean_explanatory              24 male       4 Academic
#>  2     20 simultaneous_explanatory      24 male       4 Academic
#>  3     36 mean_explanatory              28 female    20 Academic
#>  4     36 simultaneous_explanatory      28 female    20 Academic
#>  5     40 mean_explanatory              27 female    35 Academic
#>  6     40 simultaneous_explanatory      27 female    35 Academic
#>  7     55 hidden_variable               34 female     4 Academic
#>  8     55 mean_explanatory              34 female     4 Academic
#>  9     55 simultaneous_explanatory      34 female     4 Academic
#> 10     57 case_weights                  28 male       5 General 
#> # … with 45 more rows
…
inf_pig_bench_tbl <- left_join(inf_pig_tbl, bench_pig_tbl, by = "perturbation") %>% 
  mutate(influential = curvature > benchmark) %>% filter(influential == TRUE) %>%
  select(-influential, -benchmark, -curvature)

data_pig_tbl <- augment(fit_pig_red) %>% mutate(.index = row_number()) %>% 
  select(.index, daysabs, gender, math, prog)

influential_pig <- left_join(inf_pig_bench_tbl, data_pig_tbl, by = ".index")

influential_pig
#> # A tibble: 64 x 6
#>    .index perturbation             daysabs gender  math prog    
#>     <int> <chr>                      <dbl> <fct>  <dbl> <fct>   
#>  1     20 hidden_variable               24 male       4 Academic
#>  2     20 mean_explanatory              24 male       4 Academic
#>  3     20 simultaneous_explanatory      24 male       4 Academic
#>  4     28 case_weights                   0 female    21 Academic
#>  5     31 case_weights                   0 male       1 Academic
#>  6     36 hidden_variable               28 female    20 Academic
#>  7     36 mean_explanatory              28 female    20 Academic
#>  8     36 simultaneous_explanatory      28 female    20 Academic
#>  9     39 precision_explanatory          5 male       1 General 
#> 10     40 mean_explanatory              27 female    35 Academic
#> # … with 54 more rows
…
